Nazwa_pizzy,Cena_pizzy,Typ_produktu,50/50,napoj_gratis
Salami,2000,pizza,tak,tak
Wiejska,1300,pizza,tak,tak
Szynka,1500,pizza,tak,tak
Margaritta,1600,pizza,tak,tak
Capriciosa,2400,pizza,tak,tak
Pepperoni,2500,pizza,tak,tak
Polska,2200,pizza,tak,tak
Vege,1800,pizza,tak,tak
Hawajska,2100,pizza,tak,tak
Kebab,2200,pizza,tak,tak
Sprite-0.5l,600,napoj,nie,nie
Pepsi-0.5l,600,napoj,nie,nie
CocaCola-1l,1000,napoj,nie,nie
Mirinda-0.33l,300,napoj,nie,nie
Fanta-0.5l,700,napoj,nie,nie
Piwniczanka-niskonasycona-1.5l,300,napoj,nie,nie
Piwniczanka-wysokonasycona-1.5l,300,napoj,nie,nie
Oranżada-Helena-0.5l,600,napoj,nie,nie
Zestaw-Fantastycznej-Polski(Pizza-Polska+Fanta-0.5l),2000,zestaw,nie,nie
Zestaw-Kebab(Pizza-kebab+CocaCola-1l),2700,zestaw,nie,nie
